Pedestrian Detection.sim/sim_1/behav/xsim/wave.vcd
$date
   Mon Mar  9 21:21:56 2026
$end

$version
  2025.2
  $dumpfile ("wave.vcd") 
$end

$timescale
  1ps
$end

$scope module testbench $end
$var reg 1 ! clk $end
$var wire 1 " detected $end
$scope module DUT $end
$var wire 1 # clk $end
$var wire 1 " detected $end
$var wire 8 $ pixel [7:0] $end
$var wire 1 % valid $end
$var wire 8 & edge_val [7:0] $end
$var wire 1 ' edge_valid $end
$var wire 1 ( feature $end
$var wire 1 ) feature_valid $end
$var wire 1 * internal_rst_n $end
$scope module PS $end
$var wire 1 # clk $end
$var reg 8 + pixel [7:0] $end
$var reg 1 , valid $end
$var reg 13 - addr [12:0] $end
$upscope $end
$scope module ED $end
$var wire 1 # clk $end
$var wire 1 * rst_n $end
$var wire 8 $ pixel [7:0] $end
$var wire 1 % valid_in $end
$var reg 8 . edge_val [7:0] $end
$var reg 1 / valid_out $end
$var reg 8 0 prev_pixel [7:0] $end
$var reg 1 1 first_pixel_done $end
$upscope $end
$scope module FE $end
$var wire 1 # clk $end
$var wire 1 * rst_n $end
$var wire 8 & edge_val [7:0] $end
$var wire 1 ' valid_in $end
$var reg 1 2 feature $end
$var reg 1 3 valid_out $end
$upscope $end
$scope module SW $end
$var wire 1 # clk $end
$var wire 1 ( feature $end
$var wire 1 ) valid_in $end
$var reg 1 4 detected $end
$var reg 8 5 count [7:0] $end
$upscope $end
$upscope $end
$upscope $end
$enddefinitions $end

#0
$dumpvars
0!
x"
0#
bx $
x%
bx &
x'
x(
x)
1*
bx +
x,
b0 -
bx .
x/
bx 0
x1
x2
x3
x4
b0 5
$end

#5000
1!
1#
b10110101 $
1%
0'
0(
0)
b10110101 +
1,
b1 -
0/
02
03

#10000
0!
0#

#15000
1!
1#
b11100110 $
b11100110 +
b10 -
b10110101 0
11

#20000
0!
0#

#25000
1!
1#
b11100000 $
b110001 &
1'
b11100000 +
b11 -
b110001 .
1/
b11100110 0

#30000
0!
0#

#35000
1!
1#
b11100110 $
b110 &
1(
1)
b11100110 +
b100 -
b110 .
b11100000 0
12
13

#40000
0!
0#

#45000
1!
0"
1#
b11110000 $
0(
b11110000 +
b101 -
b11100110 0
02
04
b1 5

#50000
0!
0#

#55000
1!
1#
b11110001 $
b1010 &
b11110001 +
b110 -
b1010 .
b11110000 0

#60000
0!
0#

#65000
1!
1#
b11101110 $
b1 &
b11101110 +
b111 -
b1 .
b11110001 0

#70000
0!
0#

#75000
1!
1#
b11101100 $
b11 &
b11101100 +
b1000 -
b11 .
b11101110 0

#80000
0!
0#

#85000
1!
1#
b11111001 $
b10 &
b11111001 +
b1001 -
b10 .
b11101100 0

#90000
0!
0#

#95000
1!
1#
b11101001 $
b1101 &
b11101001 +
b1010 -
b1101 .
b11111001 0

#100000
0!
0#

#105000
1!
1#
b11011101 $
b10000 &
1(
b11011101 +
b1011 -
b10000 .
b11101001 0
12

#110000
0!
0#

#115000
1!
1#
b11110100 $
b1100 &
b11110100 +
b1100 -
b1100 .
b11011101 0
b10 5

#120000
0!
0#

#125000
1!
1#
b11001011 $
b10111 &
b11001011 +
b1101 -
b10111 .
b11110100 0
b11 5

#130000
0!
0#

#135000
1!
1#
b10011000 $
b101001 &
b10011000 +
b1110 -
b101001 .
b11001011 0
b100 5

#140000
0!
0#

#145000
1!
1#
b10010100 $
b110011 &
b10010100 +
b1111 -
b110011 .
b10011000 0
b101 5

#150000
0!
0#

#155000
1!
1#
b11000000 $
b100 &
b11000000 +
b10000 -
b100 .
b10010100 0
b110 5

#160000
0!
0#

#165000
1!
1#
b10110000 $
b101100 &
0(
b10110000 +
b10001 -
b101100 .
b11000000 0
02
b111 5

#170000
0!
0#

#175000
1!
1#
b11001011 $
b10000 &
1(
b11001011 +
b10010 -
b10000 .
b10110000 0
12

#180000
0!
0#

#185000
1!
1#
b11010001 $
b11011 &
b11010001 +
b10011 -
b11011 .
b11001011 0
b1000 5

#190000
0!
0#

#195000
1!
1#
b11100110 $
b110 &
b11100110 +
b10100 -
b110 .
b11010001 0
b1001 5

#200000
0!
0#

#205000
1!
1#
b11100111 $
b10101 &
0(
b11100111 +
b10101 -
b10101 .
b11100110 0
02
b1010 5

#210000
0!
0#

#215000
1!
1#
b11101011 $
b1 &
1(
b11101011 +
b10110 -
b1 .
b11100111 0
12

#220000
0!
0#

#225000
1!
1#
b11101010 $
b100 &
0(
b11101010 +
b10111 -
b100 .
b11101011 0
02
b1011 5

#230000
0!
0#

#235000
1!
1#
b11101001 $
b1 &
b11101001 +
b11000 -
b1 .
b11101010 0

#240000
0!
0#

#245000
1!
1#
b11100000 $
b11100000 +
b11001 -
b11101001 0

#250000
0!
0#

#255000
1!
1#
b11100111 $
b1001 &
b11100111 +
b11010 -
b1001 .
b11100000 0

#260000
0!
0#

#265000
1!
1#
b11010100 $
b111 &
b11010100 +
b11011 -
b111 .
b11100111 0

#270000
0!
0#

#275000
1!
1#
b11100101 $
b10011 &
b11100101 +
b11100 -
b10011 .
b11010100 0

#280000
0!
0#

#285000
1!
1#
b10100010 $
b10001 &
1(
b10100010 +
b11101 -
b10001 .
b11100101 0
12

#290000
0!
0#

#295000
1!
1#
b10000001 $
b1000011 &
b10000001 +
b11110 -
b1000011 .
b10100010 0
b1100 5

#300000
0!
0#

#305000
1!
1#
b10101101 $
b100001 &
b10101101 +
b11111 -
b100001 .
b10000001 0
b1101 5

#310000
0!
0#

#315000
1!
1#
b1110011 $
b101100 &
b1110011 +
b100000 -
b101100 .
b10101101 0
b1110 5

#320000
0!
0#

#325000
1!
1#
b1101110 $
b111010 &
b1101110 +
b100001 -
b111010 .
b1110011 0
b1111 5

#330000
0!
0#

#335000
1!
1#
b10000101 $
b101 &
b10000101 +
b100010 -
b101 .
b1101110 0
b10000 5

#340000
0!
0#

#345000
1!
1#
b10010000 $
b10111 &
0(
b10010000 +
b100011 -
b10111 .
b10000101 0
02
b10001 5

#350000
0!
0#

#355000
1!
1#
b1101010 $
b1011 &
1(
b1101010 +
b100100 -
b1011 .
b10010000 0
12

#360000
0!
0#

#365000
1!
1#
b1010001 $
b100110 &
b1010001 +
b100101 -
b100110 .
b1101010 0
b10010 5

#370000
0!
0#

#375000
1!
1#
b100110 $
b11001 &
b100110 +
b100110 -
b11001 .
b1010001 0
b10011 5

#380000
0!
0#

#385000
1!
1#
b1101 $
b101011 &
b1101 +
b100111 -
b101011 .
b100110 0
b10100 5

#390000
0!
0#

#395000
1!
1#
b1011 $
b11001 &
b1011 +
b101000 -
b11001 .
b1101 0
b10101 5

#400000
0!
0#

#405000
1!
1"
1#
b1010 $
b10 &
b1010 +
b101001 -
b10 .
b1011 0
14
b10110 5

#410000
0!
0#

#415000
1!
1#
b1011 $
b1 &
0(
b1011 +
b101010 -
b1 .
b1010 0
02
b10111 5

#420000
0!
0#

#425000
1!
1#
b1100 $
b1100 +
b101011 -
b1011 0

#430000
0!
0#

#435000
1!
1#
b1011 $
b1011 +
b101100 -
b1100 0

#440000
0!
0#

#445000
1!
1#
b1100 $
b1100 +
b101101 -
b1011 0

#450000
0!
0#

#455000
1!
1#
b1011 $
b1011 +
b101110 -
b1100 0

#460000
0!
0#

#465000
1!
1#
b1000 $
b1000 +
b101111 -
b1011 0

#470000
0!
0#

#475000
1!
1#
b101 $
b11 &
b101 +
b110000 -
b11 .
b1000 0

#480000
0!
0#

#485000
1!
1#
b10 $
b10 +
b110001 -
b101 0

#490000
0!
0#

#495000
1!
1#
b11 $
b11 +
b110010 -
b10 0

#500000
0!
0#

#505000
1!
1#
b10 $
b1 &
b10 +
b110011 -
b1 .
b11 0

#510000
0!
0#

#515000
1!
1#
b101 $
b101 +
b110100 -
b10 0

#520000
0!
0#

#525000
1!
1#
b1011 $
b11 &
b1011 +
b110101 -
b11 .
b101 0

#530000
0!
0#

#535000
1!
1#
b1111 $
b110 &
b1111 +
b110110 -
b110 .
b1011 0

#540000
0!
0#

#545000
1!
1#
b10001 $
b100 &
b10001 +
b110111 -
b100 .
b1111 0

#550000
0!
0#

#555000
1!
1#
b10100 $
b10 &
b10100 +
b111000 -
b10 .
b10001 0

#560000
0!
0#

#565000
1!
1#
b10010 $
b11 &
b10010 +
b111001 -
b11 .
b10100 0

#570000
0!
0#

#575000
1!
1#
b110011 $
b10 &
b110011 +
b111010 -
b10 .
b10010 0

#580000
0!
0#

#585000
1!
1#
b1001001 $
b100001 &
b1001001 +
b111011 -
b100001 .
b110011 0

#590000
0!
0#

#595000
1!
1#
b1010000 $
b10110 &
1(
b1010000 +
b111100 -
b10110 .
b1001001 0
12

#600000
0!
0#

#605000
1!
1#
b1011000 $
b111 &
b1011000 +
b111101 -
b111 .
b1010000 0
b11000 5

#610000
0!
0#

#615000
1!
1#
b1010111 $
b1000 &
0(
b1010111 +
b111110 -
b1000 .
b1011000 0
02
b11001 5

#620000
0!
0#

#625000
1!
1#
b10000000 $
b1 &
b10000000 +
b111111 -
b1 .
b1010111 0

#630000
0!
0#

#635000
1!
1#
b10001000 $
b101001 &
b10001000 +
b1000000 -
b101001 .
b10000000 0

#640000
0!
0#

#645000
1!
1#
b11000110 $
b1000 &
1(
b11000110 +
b1000001 -
b1000 .
b10001000 0
12

#650000
0!
0#

#655000
1!
1#
b11100101 $
b111110 &
0(
b11100101 +
b1000010 -
b111110 .
b11000110 0
02
b11010 5

#660000
0!
0#

#665000
1!
1#
b11010100 $
b11111 &
1(
b11010100 +
b1000011 -
b11111 .
b11100101 0
12

#670000
0!
0#

#675000
1!
1#
b11010111 $
b10001 &
b11010111 +
b1000100 -
b10001 .
b11010100 0
b11011 5

#680000
0!
0#

#685000
1!
1#
b11100000 $
b11 &
b11100000 +
b1000101 -
b11 .
b11010111 0
b11100 5

#690000
0!
0#

#695000
1!
1#
b11110000 $
b1001 &
0(
b11110000 +
b1000110 -
b1001 .
b11100000 0
02
b11101 5

#700000
0!
0#

#705000
1!
1#
b11011011 $
b10000 &
b11011011 +
b1000111 -
b10000 .
b11110000 0

#710000
0!
0#

#715000
1!
1#
b11100101 $
b10101 &
1(
b11100101 +
b1001000 -
b10101 .
b11011011 0
12

#720000
0!
0#

#725000
1!
1#
b11110011 $
b1010 &
b11110011 +
b1001001 -
b1010 .
b11100101 0
b11110 5

#730000
0!
0#

#735000
1!
1#
b11101101 $
b1110 &
0(
b11101101 +
b1001010 -
b1110 .
b11110011 0
02
b11111 5

#740000
0!
0#

#745000
1!
1#
b11100010 $
b110 &
1(
b11100010 +
b1001011 -
b110 .
b11101101 0
12

#750000
0!
0#

#755000
1!
1#
b11110100 $
b1011 &
0(
b11110100 +
b1001100 -
b1011 .
b11100010 0
02
b100000 5

#760000
0!
0#

#765000
1!
1#
b11001110 $
b10010 &
1(
b11001110 +
b1001101 -
b10010 .
b11110100 0
12

#770000
0!
0#

#775000
1!
1#
b10101100 $
b100110 &
b10101100 +
b1001110 -
b100110 .
b11001110 0
b100001 5

#780000
0!
0#

#785000
1!
1#
b10001101 $
b100010 &
b10001101 +
b1001111 -
b100010 .
b10101100 0
b100010 5

#790000
0!
0#

#795000
1!
1#
b10110111 $
b11111 &
b10110111 +
b1010000 -
b11111 .
b10001101 0
b100011 5

#800000
0!
0#

#805000
1!
1#
b10111100 $
b101010 &
b10111100 +
b1010001 -
b101010 .
b10110111 0
b100100 5

#810000
0!
0#

#815000
1!
1#
b10111010 $
b101 &
b10111010 +
b1010010 -
b101 .
b10111100 0
b100101 5

#820000
0!
0#

#825000
1!
1#
b11010011 $
b10 &
0(
b11010011 +
b1010011 -
b10 .
b10111010 0
02
b100110 5

#830000
0!
0#

#835000
1!
1#
b11100101 $
b11001 &
b11100101 +
b1010100 -
b11001 .
b11010011 0

#840000
0!
0#

#845000
1!
1#
b11101000 $
b10010 &
1(
b11101000 +
b1010101 -
b10010 .
b11100101 0
12

#850000
0!
0#

#855000
1!
1#
b11101011 $
b11 &
b11101011 +
b1010110 -
b11 .
b11101000 0
b100111 5

#860000
0!
0#

#865000
1!
1#
b11101010 $
0(
b11101010 +
b1010111 -
b11101011 0
02
b101000 5

#870000
0!
0#

#875000
1!
1#
b11101001 $
b1 &
b11101001 +
b1011000 -
b1 .
b11101010 0

#880000
0!
0#

#885000
1!
1#
b11100001 $
b11100001 +
b1011001 -
b11101001 0

#890000
0!
0#

#895000
1!
1#
b11100111 $
b1000 &
b11100111 +
b1011010 -
b1000 .
b11100001 0

#900000
0!
0#

#905000
1!
1#
b11010100 $
b110 &
b11010100 +
b1011011 -
b110 .
b11100111 0

#910000
0!
0#

#915000
1!
1#
b11100110 $
b10011 &
b11100110 +
b1011100 -
b10011 .
b11010100 0

#920000
0!
0#

#925000
1!
1#
b10100000 $
b10010 &
1(
b10100000 +
b1011101 -
b10010 .
b11100110 0
12

#930000
0!
0#

#935000
1!
1#
b1110100 $
b1000110 &
b1110100 +
b1011110 -
b1000110 .
b10100000 0
b101001 5

#940000
0!
0#

#945000
1!
1#
b10110111 $
b101100 &
b10110111 +
b1011111 -
b101100 .
b1110100 0
b101010 5

#950000
0!
0#

#955000
1!
1#
b1111111 $
b1000011 &
b1111111 +
b1100000 -
b1000011 .
b10110111 0
b101011 5

#960000
0!
0#

#965000
1!
1#
b10000110 $
b111000 &
b10000110 +
b1100001 -
b111000 .
b1111111 0
b101100 5

#970000
0!
0#

#975000
1!
1#
b10100010 $
b111 &
b10100010 +
b1100010 -
b111 .
b10000110 0
b101101 5

#980000
0!
0#

#985000
1!
1#
b10011000 $
b11100 &
0(
b10011000 +
b1100011 -
b11100 .
b10100010 0
02
b101110 5

#990000
0!
0#

#995000
1!
1#
b1110100 $
b1010 &
1(
b1110100 +
b1100100 -
b1010 .
b10011000 0
12

